; Engine configuration file.
; It's best edited using the editor UI and not directly,
; since the parameters that go here are not all obvious.
;
; Format:
;   [section] ; section goes between []
;   param=value ; assign values to parameters

config_version=5

[application]

config/name="Template"
config/tags=PackedStringArray("20_games")
run/main_scene="res://game.tscn"
config/features=PackedStringArray("4.2", "Forward Plus")
config/icon="res://icon.svg"

[autoload]

FpsCounter="*res://addons/fps_counter/FpsCounter.tscn"
Console="*res://addons/godot-console/console/src/Console.tscn"
Print="*res://addons/sdg-print/Print.tscn"

[display]

window/stretch/mode="viewport"

[editor_plugins]

enabled=PackedStringArray("res://addons/fps_counter/plugin.cfg", "res://addons/godot-console/console/plugin.cfg", "res://addons/sdg-print/plugin.cfg")

[filesystem]

import/blender/enabled=false
import/fbx/enabled=false

[input]

console_toggle={
"deadzone": 0.5,
"events": [Object(InputEventKey,"resource_local_to_scene":false,"resource_name":"","device":-1,"window_id":0,"alt_pressed":false,"shift_pressed":false,"ctrl_pressed":false,"meta_pressed":false,"pressed":false,"keycode":96,"physical_keycode":0,"key_label":0,"unicode":96,"echo":false,"script":null)
]
}
console_autocomplete={
"deadzone": 0.5,
"events": [Object(InputEventKey,"resource_local_to_scene":false,"resource_name":"","device":0,"window_id":0,"alt_pressed":false,"shift_pressed":false,"ctrl_pressed":false,"meta_pressed":false,"pressed":false,"keycode":4194306,"physical_keycode":0,"key_label":0,"unicode":0,"echo":false,"script":null)
]
}
console_history_up={
"deadzone": 0.5,
"events": [Object(InputEventKey,"resource_local_to_scene":false,"resource_name":"","device":0,"window_id":0,"alt_pressed":false,"shift_pressed":false,"ctrl_pressed":false,"meta_pressed":false,"pressed":false,"keycode":4194320,"physical_keycode":0,"key_label":0,"unicode":0,"echo":false,"script":null)
]
}
console_history_down={
"deadzone": 0.5,
"events": [Object(InputEventKey,"resource_local_to_scene":false,"resource_name":"","device":0,"window_id":0,"alt_pressed":false,"shift_pressed":false,"ctrl_pressed":false,"meta_pressed":false,"pressed":false,"keycode":4194322,"physical_keycode":0,"key_label":0,"unicode":0,"echo":false,"script":null)
]
}
